{
   "api_version" : 1,
   "request_id" : "mintlab-087665-0cc758",
   "result" : {
      "instance" : {
         "pager" : {
            "next" : "https://customer/api/v1/controlpanel?page=2",
            "page" : 1,
            "pages" : 3,
            "prev" : null,
            "rows" : 10,
            "total_rows" : 23
         },
         "rows" : [
            {
               "instance" : {
                  "customer_type" : "gov",
                  "id" : "7dcde918-abec-4926-b796-0f4915a7597b",
                  "ipaddresses" : [],
                  "owner" : "betrokkene-bedrijf-47",
                  "template" : "vianen"
               },
               "reference" : "7dcde918-abec-4926-b796-0f4915a7597b",
               "type" : "controlpanel"
            },
            {
               "instance" : {
                  "customer_type" : "gov",
                  "id" : "16d90674-1006-4b06-b08a-0f80185e5cec",
                  "ipaddresses" : [],
                  "owner" : "betrokkene-bedrijf-74",
                  "template" : "wijkbijduurstede"
               },
               "reference" : "16d90674-1006-4b06-b08a-0f80185e5cec",
               "type" : "controlpanel"
            },
            {
               "instance" : {
                  "customer_type" : "gov",
                  "id" : "9de5b322-ff6f-492f-920b-d02f5c1c7c8c",
                  "ipaddresses" : [],
                  "owner" : "betrokkene-bedrijf-181",
                  "template" : "werkplein"
               },
               "reference" : "9de5b322-ff6f-492f-920b-d02f5c1c7c8c",
               "type" : "controlpanel"
            },
            {
               "instance" : {
                  "customer_type" : "gov",
                  "id" : "4493a55b-40ff-40f9-9254-dc4110168054",
                  "ipaddresses" : [],
                  "owner" : "betrokkene-bedrijf-75",
                  "template" : "voerendaal"
               },
               "reference" : "4493a55b-40ff-40f9-9254-dc4110168054",
               "type" : "controlpanel"
            },
            {
               "instance" : {
                  "customer_type" : "com",
                  "id" : "bf65f663-adea-4912-9cbb-61aaf0ccdea3",
                  "ipaddresses" : [],
                  "owner" : "betrokkene-bedrijf-88",
                  "template" : "mintlab"
               },
               "reference" : "bf65f663-adea-4912-9cbb-61aaf0ccdea3",
               "type" : "controlpanel"
            },
            {
               "instance" : {
                  "customer_type" : "gov",
                  "id" : "d6788fa6-4dd6-4006-9f99-d58485923e2b",
                  "ipaddresses" : [],
                  "owner" : "betrokkene-bedrijf-37",
                  "template" : "tholen"
               },
               "reference" : "d6788fa6-4dd6-4006-9f99-d58485923e2b",
               "type" : "controlpanel"
            },
            {
               "instance" : {
                  "customer_type" : "gov",
                  "id" : "fe88202c-41ee-43a2-82eb-0a55835d2311",
                  "ipaddresses" : [],
                  "owner" : "betrokkene-bedrijf-195",
                  "template" : "mintlab"
               },
               "reference" : "fe88202c-41ee-43a2-82eb-0a55835d2311",
               "type" : "controlpanel"
            },
            {
               "instance" : {
                  "customer_type" : "gov",
                  "id" : "b837bf5b-2cfb-494d-acf6-6638d6dec070",
                  "ipaddresses" : [],
                  "owner" : "betrokkene-bedrijf-67",
                  "template" : "groningenseaports"
               },
               "reference" : "b837bf5b-2cfb-494d-acf6-6638d6dec070",
               "type" : "controlpanel"
            },
            {
               "instance" : {
                  "customer_type" : "gov",
                  "id" : "d545a8c8-fcf3-42de-ad68-026be6f69829",
                  "ipaddresses" : [],
                  "owner" : "betrokkene-bedrijf-85",
                  "template" : "roosendaal"
               },
               "reference" : "d545a8c8-fcf3-42de-ad68-026be6f69829",
               "type" : "controlpanel"
            },
            {
               "instance" : {
                  "customer_type" : "gov",
                  "id" : "126e33e7-72db-4124-a093-3a361fce3a75",
                  "ipaddresses" : [],
                  "owner" : "betrokkene-bedrijf-52",
                  "template" : "oude-ijsselstreek"
               },
               "reference" : "126e33e7-72db-4124-a093-3a361fce3a75",
               "type" : "controlpanel"
            }
         ]
      },
      "reference" : null,
      "type" : "set"
   },
   "status_code" : 200
}
